MUDAC
…
`summarise()` has grouped output by 'Ag.District'. You can override using the
`.groups` argument.

total_animals |>
  select(Ag.District, Max_animals, Year.of.County_Animals) |>
  arrange(desc(Max_animals))

# A tibble: 126 × 3
# Groups:   Ag.District [9]
   Ag.District   Max_animals Year.of.County_Animals
   <chr>               <int>                  <int>
 1 CENTRAL           9677201                   2017
 2 CENTRAL           9273824                   2012
 3 CENTRAL           7554353                   2022
 4 SOUTH CENTRAL     5410784                   2017
 5 SOUTH CENTRAL     5012624                   2012
 6 SOUTH CENTRAL     4647546                   2022
 7 WEST CENTRAL      4393951                   2012
 8 SOUTHWEST         3961216                   2022
 9 SOUTHWEST         3877191                   2017
10 SOUTHWEST         3208760                   2012
# ℹ 116 more rows
…
joined_amm_shit <- left_join(fert_con, max_manure, join_by("Year" == "Year.of.County_Animals")) 

Warning in left_join(fert_con, max_manure, join_by("Year" == "Year.of.County_Animals")): Detected an unexpected many-to-many relationship between `x` and `y`.
ℹ Row 1 of `x` matches multiple rows in `y`.
ℹ Row 13 of `y` matches multiple rows in `x`.
ℹ If a many-to-many relationship is expected, set `relationship =
  "many-to-many"` to silence this warning.

joined_amm_shit |>
  group_by(Ag.District.x)

# A tibble: 891 × 5
# Groups:   Ag.District.x [9]
   Ag.District.x  Year total_use_ammonia Ag.District.y Maximum_shit
   <chr>         <int>             <int> <chr>                <dbl>
 1 CENTRAL        2010             48659 CENTRAL           32711700
 2 CENTRAL        2010             48659 SOUTHEAST         21608600
 3 CENTRAL        2010             48659 WEST CENTRAL      11951500
 4 CENTRAL        2010             48659 SOUTH CENTRAL      6709300
 5 CENTRAL        2010             48659 SOUTHWEST          6422900
 6 CENTRAL        2010             48659 NORTHWEST          5753000
 7 CENTRAL        2010             48659 EAST CENTRAL       5138800
 8 CENTRAL        2010             48659 NORTH CENTRAL      2112000
 9 CENTRAL        2010             48659 NORTHEAST           417500
10 CENTRAL        2011             43431 CENTRAL           32501100
# ℹ 881 more rows
…
